{
  "sections": {
    "main-1": {
      "type": "password-template",
      "settings": {
        "logo": "shopify:\/\/shop_images\/WebseiteLogo_Schrift-B-VERSION_Large_68e84f4c-cf09-44dd-9925-5ddf0b823c4d.png",
        "logo_max_width": 200,
        "mobile_logo_max_width": 200,
        "background_image": "shopify:\/\/shop_images\/JOHN.jpg",
        "text_color": "#ffffff",
        "heading": "Opening Soon",
        "show_newsletter_signup": true,
        "newsletter_text": "<p>Wir sind hier noch fleißig am arbeiten! Gerne benachrichtigen wir dich per Mail, wenn unser Shop online geht!<\/p>",
        "show_social_sharing": true,
        "social_message": "Spread the word"
      }
    }
  },
  "order": [
    "main-1"
  ],
  "layout": "password"
}